{
  "name": "Codominant",
  "unitTest": true,
  "description": "Performs QC on Codominant Data",
  "inputBinding": [],
  "binding": [
    {
      "knob": {
        "knobName": "mode",
        "description": "Input Mode",
        "required": true,
        "knobDataType": "CHOICE",
        "defaultValue": "",
        "validationRule": "Folder|Upload",
        "tooltip": "Choose to run plugin on:\n* mode\u003dFolder (REST API ONLY): A folder specified in its full path accessible on the KDCompute server\n* mode\u003dUpload. Upload a Hapmap, Summary, Sample and Marker files"
      },
      "knobValue": "Upload"
    },
    {
      "knob": {
        "knobName": "datasetFolder",
        "description": "Dataset Folder",
        "required": false,
        "knobDataType": "TEXT",
        "defaultValue": "",
        "validationRule": "",
        "tooltip": "Path to dataset folder on the system"
      },
      "knobValue": ""
    },
    {
      "knob": {
        "knobName": "hapmapFile",
        "description": "Hapmap.hmp.txt",
        "required": false,
        "knobDataType": "FILE_UPLOAD",
        "defaultValue": "",
        "validationRule": "",
        "tooltip": "Tab delimited file containing genotypic data in hapmap format"
      },
      "knobValue": "codom/DS1.hmp.txt"
    },
    {
      "knob": {
        "knobName": "sampleFile",
        "description": "sample.file",
        "required": false,
        "knobDataType": "FILE_UPLOAD",
        "defaultValue": "",
        "validationRule": "",
        "tooltip": "Tab delimited file containing sample metadata"
      },
      "knobValue": "codom/sample.file"
    },
    {
      "knob": {
        "knobName": "summaryFile",
        "description": "summary.file",
        "required": false,
        "knobDataType": "FILE_UPLOAD",
        "defaultValue": "",
        "validationRule": "",
        "tooltip": "Tab delimited file containing marker dataset properties"
      },
      "knobValue": "codom/summary.file"
    },
    {
      "knob": {
        "knobName": "markerFile",
        "description": "marker.file",
        "required": false,
        "knobDataType": "FILE_UPLOAD",
        "defaultValue": "",
        "validationRule": "",
        "tooltip": "Tab delimited file containing marker metadata"
      },
      "knobValue": "codom/marker.file"
    }
  ],
  "expIdentical": [],
  "expSize": [
    {
      "tolleranceDiff": 5.0,
      "expectedFile": "codom_exp/Summary_samples.csv",
      "actualFilepath": "Summary_samples.csv"
    },
    {
      "tolleranceDiff": 5.0,
      "expectedFile": "codom_exp/Summary_markers.csv",
      "actualFilepath": "Summary_markers.csv"
    },
    {
      "tolleranceDiff": 5.0,
      "expectedFile": "codom_exp/dataset_summary.csv",
      "actualFilepath": "dataset_summary.csv"
    },
    {
      "tolleranceDiff": 5.0,
      "expectedFile": "codom_exp/Pair_wise_reproducibility.csv",
      "actualFilepath": "Pair_wise_reproducibility.csv"
    },
    {
      "tolleranceDiff": 5.0,
      "expectedFile": "codom_exp/F1.csv",
      "actualFilepath": "F1.csv"
    },
    {
      "tolleranceDiff": 5.0,
      "expectedFile": "codom_exp/Similarity_matrix.csv",
      "actualFilepath": "Similarity_matrix.csv"
    },
    {
      "tolleranceDiff": 5.0,
      "expectedFile": "codom_exp/Similarity_matrix_columnwise.csv",
      "actualFilepath": "Similarity_matrix_columnwise.csv"
    },
    {
      "tolleranceDiff": 5.0,
      "expectedFile": "codom_exp/Summary_by_germplasm_type.csv",
      "actualFilepath": "Summary_by_germplasm_type.csv"
    },
    {
      "tolleranceDiff": 5.0,
      "expectedFile": "codom_exp/Summary_samples_chisq.csv",
      "actualFilepath": "Summary_samples_chisq.csv"
    },
    {
      "tolleranceDiff": 5.0,
      "expectedFile": "codom_exp/Reproducibility_by_sample.csv",
      "actualFilepath": "Reproducibility_by_sample.csv"
    }
  ],
  "expPercentageIdentical": [],
  "expExists": [
    {
      "actualFilepath": "Report.xlsx"
    }
  ]
}