similarity_matrix_row,germplasm_name_sample1,germplasm_external_code_sample1,dnasample_name_sample1,dnasample_num_sample1,dnasample_platename_sample1,dnasample_ref_sample_sample1,dnarun_name_sample1,dnarun_name_sample2,similarity,similarity_matrix_column,germplasm_name_sample2,germplasm_external_code_sample2,dnasample_name_sample2,dnasample_num_sample2,dnasample_platename_sample2,dnasample_ref_sample_sample2
10,germplasmname_nuc__2,A1000002,dnarunname_nuc__3,A3,,ref,dnarunname_nuc__3,dnarunname_nuc__7,0.900,N,germplasmname_nuc__5,A1000005,dnarunname_nuc__7,A7,,
15,germplasmname_nuc__6,A1000006,dnarunname_nuc__8,A8,,,dnarunname_nuc__8,dnarunname_nuc__9,0.833,P,germplasmname_nuc__7,A1000007,dnarunname_nuc__9,A9,,
8,germplasmname_nuc__1,A1000001,dnarunname_nuc__1,A1,,ref,dnarunname_nuc__1,dnarunname_nuc__6,0.812,M,germplasmname_nuc__4,A1000004,dnarunname_nuc__6,A6,,
10,germplasmname_nuc__2,A1000002,dnarunname_nuc__3,A3,,ref,dnarunname_nuc__3,dnarunname_nuc__6,0.812,M,germplasmname_nuc__4,A1000004,dnarunname_nuc__6,A6,,
12,germplasmname_nuc__3,A1000003,dnarunname_nuc__5,A5,,,dnarunname_nuc__5,dnarunname_nuc__8,0.812,O,germplasmname_nuc__6,A1000006,dnarunname_nuc__8,A8,,
13,germplasmname_nuc__4,A1000004,dnarunname_nuc__6,A6,,,dnarunname_nuc__6,dnarunname_nuc__7,0.812,N,germplasmname_nuc__5,A1000005,dnarunname_nuc__7,A7,,
13,germplasmname_nuc__4,A1000004,dnarunname_nuc__6,A6,,,dnarunname_nuc__6,dnarunname_nuc__8,0.812,O,germplasmname_nuc__6,A1000006,dnarunname_nuc__8,A8,,
13,germplasmname_nuc__4,A1000004,dnarunname_nuc__6,A6,,,dnarunname_nuc__6,dnarunname_nuc__10,0.812,Q,germplasmname_nuc__8,A1000008,dnarunname_nuc__10,A10,,
16,germplasmname_nuc__7,A1000007,dnarunname_nuc__9,A9,,,dnarunname_nuc__9,dnarunname_nuc__10,0.800,Q,germplasmname_nuc__8,A1000008,dnarunname_nuc__10,A10,,
10,germplasmname_nuc__2,A1000002,dnarunname_nuc__3,A3,,ref,dnarunname_nuc__3,dnarunname_nuc__8,0.778,O,germplasmname_nuc__6,A1000006,dnarunname_nuc__8,A8,,
11,germplasmname_nuc__2,A1000002,dnarunname_nuc__4,A4,,,dnarunname_nuc__4,dnarunname_nuc__7,0.778,N,germplasmname_nuc__5,A1000005,dnarunname_nuc__7,A7,,
12,germplasmname_nuc__3,A1000003,dnarunname_nuc__5,A5,,,dnarunname_nuc__5,dnarunname_nuc__7,0.778,N,germplasmname_nuc__5,A1000005,dnarunname_nuc__7,A7,,
14,germplasmname_nuc__5,A1000005,dnarunname_nuc__7,A7,,,dnarunname_nuc__7,dnarunname_nuc__8,0.778,O,germplasmname_nuc__6,A1000006,dnarunname_nuc__8,A8,,
8,germplasmname_nuc__1,A1000001,dnarunname_nuc__1,A1,,ref,dnarunname_nuc__1,dnarunname_nuc__4,0.722,K,germplasmname_nuc__2,A1000002,dnarunname_nuc__4,A4,,
12,germplasmname_nuc__3,A1000003,dnarunname_nuc__5,A5,,,dnarunname_nuc__5,dnarunname_nuc__9,0.722,P,germplasmname_nuc__7,A1000007,dnarunname_nuc__9,A9,,
15,germplasmname_nuc__6,A1000006,dnarunname_nuc__8,A8,,,dnarunname_nuc__8,dnarunname_nuc__10,0.722,Q,germplasmname_nuc__8,A1000008,dnarunname_nuc__10,A10,,
8,germplasmname_nuc__1,A1000001,dnarunname_nuc__1,A1,,ref,dnarunname_nuc__1,dnarunname_nuc__7,0.700,N,germplasmname_nuc__5,A1000005,dnarunname_nuc__7,A7,,
10,germplasmname_nuc__2,A1000002,dnarunname_nuc__3,A3,,ref,dnarunname_nuc__3,dnarunname_nuc__9,0.700,P,germplasmname_nuc__7,A1000007,dnarunname_nuc__9,A9,,
10,germplasmname_nuc__2,A1000002,dnarunname_nuc__3,A3,,ref,dnarunname_nuc__3,dnarunname_nuc__10,0.700,Q,germplasmname_nuc__8,A1000008,dnarunname_nuc__10,A10,,
14,germplasmname_nuc__5,A1000005,dnarunname_nuc__7,A7,,,dnarunname_nuc__7,dnarunname_nuc__10,0.700,Q,germplasmname_nuc__8,A1000008,dnarunname_nuc__10,A10,,
11,germplasmname_nuc__2,A1000002,dnarunname_nuc__4,A4,,,dnarunname_nuc__4,dnarunname_nuc__6,0.688,M,germplasmname_nuc__4,A1000004,dnarunname_nuc__6,A6,,
8,germplasmname_nuc__1,A1000001,dnarunname_nuc__1,A1,,ref,dnarunname_nuc__1,dnarunname_nuc__5,0.667,L,germplasmname_nuc__3,A1000003,dnarunname_nuc__5,A5,,
10,germplasmname_nuc__2,A1000002,dnarunname_nuc__3,A3,,ref,dnarunname_nuc__3,dnarunname_nuc__4,0.667,K,germplasmname_nuc__2,A1000002,dnarunname_nuc__4,A4,,
10,germplasmname_nuc__2,A1000002,dnarunname_nuc__3,A3,,ref,dnarunname_nuc__3,dnarunname_nuc__5,0.667,L,germplasmname_nuc__3,A1000003,dnarunname_nuc__5,A5,,
12,germplasmname_nuc__3,A1000003,dnarunname_nuc__5,A5,,,dnarunname_nuc__5,dnarunname_nuc__10,0.667,Q,germplasmname_nuc__8,A1000008,dnarunname_nuc__10,A10,,
8,germplasmname_nuc__1,A1000001,dnarunname_nuc__1,A1,,ref,dnarunname_nuc__1,dnarunname_nuc__10,0.650,Q,germplasmname_nuc__8,A1000008,dnarunname_nuc__10,A10,,
12,germplasmname_nuc__3,A1000003,dnarunname_nuc__5,A5,,,dnarunname_nuc__5,dnarunname_nuc__6,0.643,M,germplasmname_nuc__4,A1000004,dnarunname_nuc__6,A6,,
9,germplasmname_nuc__1,A1000001,dnarunname_nuc__2,A2,,,dnarunname_nuc__2,dnarunname_nuc__6,0.625,M,germplasmname_nuc__4,A1000004,dnarunname_nuc__6,A6,,
11,germplasmname_nuc__2,A1000002,dnarunname_nuc__4,A4,,,dnarunname_nuc__4,dnarunname_nuc__5,0.625,L,germplasmname_nuc__3,A1000003,dnarunname_nuc__5,A5,,
11,germplasmname_nuc__2,A1000002,dnarunname_nuc__4,A4,,,dnarunname_nuc__4,dnarunname_nuc__8,0.625,O,germplasmname_nuc__6,A1000006,dnarunname_nuc__8,A8,,
13,germplasmname_nuc__4,A1000004,dnarunname_nuc__6,A6,,,dnarunname_nuc__6,dnarunname_nuc__9,0.625,P,germplasmname_nuc__7,A1000007,dnarunname_nuc__9,A9,,
8,germplasmname_nuc__1,A1000001,dnarunname_nuc__1,A1,,ref,dnarunname_nuc__1,dnarunname_nuc__8,0.611,O,germplasmname_nuc__6,A1000006,dnarunname_nuc__8,A8,,
9,germplasmname_nuc__1,A1000001,dnarunname_nuc__2,A2,,,dnarunname_nuc__2,dnarunname_nuc__3,0.611,J,germplasmname_nuc__2,A1000002,dnarunname_nuc__3,A3,,ref
9,germplasmname_nuc__1,A1000001,dnarunname_nuc__2,A2,,,dnarunname_nuc__2,dnarunname_nuc__8,0.611,O,germplasmname_nuc__6,A1000006,dnarunname_nuc__8,A8,,
11,germplasmname_nuc__2,A1000002,dnarunname_nuc__4,A4,,,dnarunname_nuc__4,dnarunname_nuc__10,0.611,Q,germplasmname_nuc__8,A1000008,dnarunname_nuc__10,A10,,
8,germplasmname_nuc__1,A1000001,dnarunname_nuc__1,A1,,ref,dnarunname_nuc__1,dnarunname_nuc__3,0.600,J,germplasmname_nuc__2,A1000002,dnarunname_nuc__3,A3,,ref
14,germplasmname_nuc__5,A1000005,dnarunname_nuc__7,A7,,,dnarunname_nuc__7,dnarunname_nuc__9,0.600,P,germplasmname_nuc__7,A1000007,dnarunname_nuc__9,A9,,
9,germplasmname_nuc__1,A1000001,dnarunname_nuc__2,A2,,,dnarunname_nuc__2,dnarunname_nuc__4,0.562,K,germplasmname_nuc__2,A1000002,dnarunname_nuc__4,A4,,
9,germplasmname_nuc__1,A1000001,dnarunname_nuc__2,A2,,,dnarunname_nuc__2,dnarunname_nuc__7,0.556,N,germplasmname_nuc__5,A1000005,dnarunname_nuc__7,A7,,
9,germplasmname_nuc__1,A1000001,dnarunname_nuc__2,A2,,,dnarunname_nuc__2,dnarunname_nuc__9,0.556,P,germplasmname_nuc__7,A1000007,dnarunname_nuc__9,A9,,
9,germplasmname_nuc__1,A1000001,dnarunname_nuc__2,A2,,,dnarunname_nuc__2,dnarunname_nuc__10,0.556,Q,germplasmname_nuc__8,A1000008,dnarunname_nuc__10,A10,,
11,germplasmname_nuc__2,A1000002,dnarunname_nuc__4,A4,,,dnarunname_nuc__4,dnarunname_nuc__9,0.556,P,germplasmname_nuc__7,A1000007,dnarunname_nuc__9,A9,,
8,germplasmname_nuc__1,A1000001,dnarunname_nuc__1,A1,,ref,dnarunname_nuc__1,dnarunname_nuc__2,0.500,I,germplasmname_nuc__1,A1000001,dnarunname_nuc__2,A2,,
8,germplasmname_nuc__1,A1000001,dnarunname_nuc__1,A1,,ref,dnarunname_nuc__1,dnarunname_nuc__9,0.450,P,germplasmname_nuc__7,A1000007,dnarunname_nuc__9,A9,,
9,germplasmname_nuc__1,A1000001,dnarunname_nuc__2,A2,,,dnarunname_nuc__2,dnarunname_nuc__5,0.438,L,germplasmname_nuc__3,A1000003,dnarunname_nuc__5,A5,,
