dnarun_name,germplasm_name,germplasm_external_code,dnasample_name,dnasample_platename,dnasample_num,germplasm_type,germplasm_species,germplasm_subsp,germplasm_heterotic_group,dnasample_sample_group,dnasample_sample_group_cycle,dnasample_ref_sample,Marker_count,Missing_count,Unexpected_count,No_data,Data_count,Call_rate,Zeros_count,Zeros_freq,Ones_count,Ones_freq
dnarunname_dom_1,germplasmname_dom_1,5555,dnasamplename_dom_1,1,1,F2,species1,subspeciesx,,group1,1,,10.000,0.000,0.000,0.000,10.000,1.000,2.000,0.200,8.000,0.800
dnarunname_dom_2,germplasmname_dom_1,5555,dnasamplename_dom_2,1,2,F2,species1,subspeciesx,,group1,1,,10.000,1.000,0.000,0.000,9.000,0.900,2.000,0.222,7.000,0.778
dnarunname_dom_3,germplasmname_dom_2,5556,dnasamplename_dom_3,1,3,F2,species1,subspeciesx,,group1,1,,10.000,0.000,0.000,0.000,10.000,1.000,2.000,0.200,8.000,0.800
dnarunname_dom_4,germplasmname_dom_2,5556,dnasamplename_dom_4,1,4,F1_hybrid,species1,subspeciesx,,group1,1,,10.000,0.000,0.000,0.000,10.000,1.000,0.000,0.000,10.000,1.000
dnarunname_dom_5,germplasmname_dom_3,5557,dnasamplename_dom_5,1,5,F1_hybrid,species2,subspeciesx,,group1,1,,10.000,1.000,0.000,0.000,9.000,0.900,0.000,0.000,9.000,1.000
dnarunname_dom_6,germplasmname_dom_4,5558,dnasamplename_dom_6,1,6,F2,species2,subspeciesx,,group1,1,,10.000,1.000,0.000,0.000,9.000,0.900,2.000,0.222,7.000,0.778
dnarunname_dom_7,germplasmname_dom_5,5559,dnasamplename_dom_7,1,7,F2,species2,subspeciesx,,group1,1,,10.000,1.000,0.000,0.000,9.000,0.900,4.000,0.444,5.000,0.556
dnarunname_dom_8,germplasmname_dom_6,5560,dnasamplename_dom_8,1,8,F2,species2,subspeciesx,,group1,1,,10.000,0.000,0.000,0.000,10.000,1.000,4.000,0.400,6.000,0.600
