dnarun_name,germplasm_name,germplasm_external_code,dnasample_name,dnasample_platename,dnasample_num,dnasample_ref_sample,1_allele_mismatch_average,2_allele_mismatch_average,total_sample_mismatch_average
1,germplasmname_ssr_1,20001,samplename_ssr_1,,1,,0.100,0.700,0.800
2,germplasmname_ssr_1,20002,samplename_ssr_2,,2,,0.100,0.700,0.800
