Germplasm_type,Germplasm_species,germplasm_subsp,germplasm_heterotic_group,dnasample_sample_group,dnasample_sample_group_cycle,Marker_count_mean,Missing_count_mean,Unexpected_count_mean,No_data_mean,Data_count_mean,Call_rate_mean,Hom_count_mean,Hom_freq_mean,Het_count_mean,Het_freq_mean,Marker_count_median,Missing_count_median,Unexpected_count_median,No_data_median,Data_count_median,Call_rate_median,Hom_count_median,Hom_freq_median,Het_count_median,Het_freq_median
F1_hybrid,,,,1,,10.000,0.000,0.000,0.000,10.000,1.000,2.500,0.250,7.500,0.750,10.000,0.000,0.000,0.000,10.000,1.000,2.500,0.250,7.500,0.750
F2,,,,1,,10.000,0.000,0.000,0.000,10.000,1.000,8.000,0.800,2.000,0.200,10.000,0.000,0.000,0.000,10.000,1.000,8.000,0.800,2.000,0.200
F2,,,,group1,1,10.000,0.000,0.000,0.000,10.000,1.000,9.000,0.900,1.000,0.100,10.000,0.000,0.000,0.000,10.000,1.000,9.000,0.900,1.000,0.100
F2,,,,group1,2,10.000,1.000,0.000,0.000,10.000,0.900,8.000,0.800,1.000,0.100,10.000,1.000,0.000,0.000,10.000,0.900,8.000,0.800,1.000,0.100
F2,,,,group1,3,10.000,0.000,0.000,0.000,10.000,1.000,9.000,0.900,1.000,0.100,10.000,0.000,0.000,0.000,10.000,1.000,9.000,0.900,1.000,0.100
